<mxfile host="app.diagrams.net" modified="2021-11-22T09:56:57.357Z" agent="5.0 (X11)" etag="6Kr6a6euQJQ_fAfvrUVT" version="15.8.3" type="gitlab">
  <diagram id="_9amwlV_NiGX7XUOi7Zn" name="Page-1">
    <mxGraphModel dx="796" dy="416" grid="1" gridSize="10" guides="1" tooltips="1" connect="1" arrows="1" fold="1" page="1" pageScale="1" pageWidth="827" pageHeight="1169" math="0" shadow="0">
      <root>
        <mxCell id="0" />
        <mxCell id="1" parent="0" />
        <mxCell id="fjePp7JIZe7zOR5vKOTP-10" style="edgeStyle=orthogonalEdgeStyle;rounded=0;orthogonalLoop=1;jettySize=auto;html=1;entryX=0.5;entryY=0;entryDx=0;entryDy=0;" parent="1" source="fjePp7JIZe7zOR5vKOTP-2" target="fjePp7JIZe7zOR5vKOTP-9" edge="1">
          <mxGeometry relative="1" as="geometry" />
        </mxCell>
        <mxCell id="r80Ujcg46D09Jq6XLQYx-3" style="edgeStyle=orthogonalEdgeStyle;rounded=0;orthogonalLoop=1;jettySize=auto;html=1;entryX=1;entryY=0.75;entryDx=0;entryDy=0;" edge="1" parent="1" source="fjePp7JIZe7zOR5vKOTP-2" target="r80Ujcg46D09Jq6XLQYx-1">
          <mxGeometry relative="1" as="geometry" />
        </mxCell>
        <mxCell id="r80Ujcg46D09Jq6XLQYx-4" value="IP fixe" style="edgeLabel;html=1;align=center;verticalAlign=middle;resizable=0;points=[];" vertex="1" connectable="0" parent="r80Ujcg46D09Jq6XLQYx-3">
          <mxGeometry x="0.376" relative="1" as="geometry">
            <mxPoint as="offset" />
          </mxGeometry>
        </mxCell>
        <mxCell id="fjePp7JIZe7zOR5vKOTP-2" value="Serveur Debian Wordpress" style="swimlane;" parent="1" vertex="1">
          <mxGeometry x="240" y="170" width="200" height="120" as="geometry" />
        </mxCell>
        <mxCell id="fjePp7JIZe7zOR5vKOTP-3" value="&lt;div&gt;Quotas fstab&lt;/div&gt;&lt;div&gt;Partitions /home&amp;nbsp; &lt;br&gt;&lt;/div&gt;&lt;div&gt;&lt;br&gt;&lt;/div&gt;" style="text;html=1;align=left;verticalAlign=middle;resizable=0;points=[];autosize=1;strokeColor=none;fillColor=none;" parent="fjePp7JIZe7zOR5vKOTP-2" vertex="1">
          <mxGeometry x="10" y="30" width="110" height="50" as="geometry" />
        </mxCell>
        <mxCell id="fjePp7JIZe7zOR5vKOTP-16" style="edgeStyle=orthogonalEdgeStyle;rounded=0;orthogonalLoop=1;jettySize=auto;html=1;entryX=1;entryY=0.5;entryDx=0;entryDy=0;" parent="1" source="fjePp7JIZe7zOR5vKOTP-4" target="fjePp7JIZe7zOR5vKOTP-2" edge="1">
          <mxGeometry relative="1" as="geometry" />
        </mxCell>
        <mxCell id="fjePp7JIZe7zOR5vKOTP-17" value="Envoi de 10Mo max" style="edgeLabel;html=1;align=center;verticalAlign=middle;resizable=0;points=[];" parent="fjePp7JIZe7zOR5vKOTP-16" vertex="1" connectable="0">
          <mxGeometry x="0.1273" y="2" relative="1" as="geometry">
            <mxPoint as="offset" />
          </mxGeometry>
        </mxCell>
        <mxCell id="fjePp7JIZe7zOR5vKOTP-4" value="&lt;div&gt;Utilisateur 1&lt;/div&gt;&lt;div&gt;&lt;br&gt;&lt;/div&gt;&lt;div&gt;/home/utilisateur1&lt;/div&gt;&lt;div&gt;utilisateur1.antoine.lan&lt;/div&gt;&lt;div&gt;utilisateur@antoine.lan&lt;br&gt;&lt;/div&gt;" style="ellipse;whiteSpace=wrap;html=1;" parent="1" vertex="1">
          <mxGeometry x="560" y="110" width="240" height="190" as="geometry" />
        </mxCell>
        <mxCell id="fjePp7JIZe7zOR5vKOTP-13" value="&lt;div&gt;Envoi de la bdd &lt;br&gt;&lt;/div&gt;&lt;div&gt;chaque jour&lt;/div&gt;" style="edgeStyle=orthogonalEdgeStyle;rounded=0;orthogonalLoop=1;jettySize=auto;html=1;" parent="1" source="fjePp7JIZe7zOR5vKOTP-9" target="fjePp7JIZe7zOR5vKOTP-12" edge="1">
          <mxGeometry relative="1" as="geometry">
            <Array as="points">
              <mxPoint x="490" y="440" />
              <mxPoint x="490" y="440" />
            </Array>
          </mxGeometry>
        </mxCell>
        <mxCell id="fjePp7JIZe7zOR5vKOTP-9" value="Base de données" style="swimlane;" parent="1" vertex="1">
          <mxGeometry x="240" y="340" width="200" height="200" as="geometry" />
        </mxCell>
        <mxCell id="fjePp7JIZe7zOR5vKOTP-11" value="&lt;div&gt;Nom Utilisateurs&lt;/div&gt;&lt;div&gt;Date d&#39;inscription&lt;/div&gt;&lt;div&gt;Date de résiliation&lt;/div&gt;&lt;div&gt;Nombre d&#39;inscrit&lt;/div&gt;&lt;div&gt;Nombre d&#39;inscrit du jour&lt;/div&gt;&lt;div&gt;Nombre de résiliés&lt;br&gt;&lt;/div&gt;" style="text;html=1;align=left;verticalAlign=middle;resizable=0;points=[];autosize=1;strokeColor=none;fillColor=none;" parent="fjePp7JIZe7zOR5vKOTP-9" vertex="1">
          <mxGeometry x="10" y="40" width="140" height="90" as="geometry" />
        </mxCell>
        <mxCell id="fjePp7JIZe7zOR5vKOTP-12" value="&lt;div align=&quot;center&quot;&gt;Admin&lt;/div&gt;" style="ellipse;whiteSpace=wrap;html=1;align=center;" parent="1" vertex="1">
          <mxGeometry x="560" y="400" width="120" height="80" as="geometry" />
        </mxCell>
        <mxCell id="r80Ujcg46D09Jq6XLQYx-1" value="DMZ" style="swimlane;align=center;startSize=23;" vertex="1" parent="1">
          <mxGeometry x="20" y="170" width="110" height="100" as="geometry" />
        </mxCell>
        <mxCell id="r80Ujcg46D09Jq6XLQYx-2" value="&lt;div&gt;ns update a &lt;br&gt;&lt;/div&gt;&lt;div&gt;chaque utilisateur &lt;/div&gt;" style="text;html=1;align=left;verticalAlign=middle;resizable=0;points=[];autosize=1;strokeColor=none;fillColor=none;" vertex="1" parent="r80Ujcg46D09Jq6XLQYx-1">
          <mxGeometry y="30" width="110" height="30" as="geometry" />
        </mxCell>
      </root>
    </mxGraphModel>
  </diagram>
</mxfile>
